^C:\USERS\ADMIN\DOCUMENTS\VISUAL STUDIO 2010\PROJECTS\RC5SIMPLE\RC5SIMPLE\RELEASE\RC5.OBJ|C:\USERS\ADMIN\DOCUMENTS\VISUAL STUDIO 2010\PROJECTS\RC5SIMPLE\RC5SIMPLE\RELEASE\RC5SIMPLE.OBJ|C:\USERS\ADMIN\DOCUMENTS\VISUAL STUDIO 2010\PROJECTS\RC5SIMPLE\RC5SIMPLE\RELEASE\STDAFX.OBJ
C:\USERS\ADMIN\DOCUMENTS\VISUAL STUDIO 2010\PROJECTS\RC5SIMPLE\RELEASE\RC5.EXE
C:\USERS\ADMIN\DOCUMENTS\VISUAL STUDIO 2010\PROJECTS\RC5SIMPLE\RC5SIMPLE\RELEASE\RC5.EXE.INTERMEDIATE.MANIFEST
C:\USERS\ADMIN\DOCUMENTS\VISUAL STUDIO 2010\PROJECTS\RC5SIMPLE\RELEASE\RC5.PDB
